26

39 15
3
f 15 2 s
f 1 1 e
t 2 9 e
100 10

35 4
4
f 25 1 w
h 9 1 e
h 33 1 w
r 34 3 w
33 3

17 5
3
t 13 1 n
f 8 4 e
t 1 2 w
17 5

3 94
6
t 2 12 s
f 0 43 e
h 2 81 n
f 2 41 s
t 2 44 w
f 1 15 n
34 7

84 90
8
f 46 83 s
h 31 60 w
h 36 16 n
h 40 70 e
r 4 14 e
f 36 68 s
r 24 48 n
h 82 18 w
86 20

77 41
4
h 43 9 w
t 23 29 n
f 64 19 s
f 62 20 e
19 2

55 86
10
t 32 28 e
t 16 69 e
h 48 44 s
h 31 2 n
h 6 23 w
h 35 46 s
h 24 62 n
f 48 45 w
r 41 60 w
h 28 71 e
96 9

48 99
2
r 16 84 e
f 9 60 w
19 2

88 94
5
r 15 30 n
t 4 26 e
h 65 89 n
h 26 29 w
t 57 64 s
39 5

89 24
1
f 28 19 e
19 4

93 96
10
t 25 51 n
t 39 11 s
t 6 31 e
r 41 70 s
r 0 25 w
t 90 21 s
h 35 91 e
r 88 35 w
t 39 18 s
r 53 18 s
18 5

56 53
1
t 9 30 w
21 7

17 57
3
r 5 38 s
t 0 50 n
h 11 46 s
16 4

43 65
2
r 38 40 s
f 11 50 w
74 20

76 5
8
h 10 1 n
t 19 2 n
t 17 4 s
h 5 1 w
h 49 4 e
h 21 0 n
r 71 1 e
f 52 1 e
14 4

22 68
8
h 19 8 n
h 6 19 s
h 11 55 e
r 9 63 e
f 7 38 e
h 7 64 n
t 9 1 n
f 19 36 w
85 10

9 66
7
f 1 47 e
t 0 22 e
h 0 15 e
h 0 40 n
r 0 6 w
t 1 26 n
r 1 49 e
70 12

80 48
4
r 21 24 e
r 62 33 w
f 9 46 n
h 62 20 w
96 20

86 22
3
f 47 7 s
r 4 7 e
h 67 0 n
59 11

39 18
8
f 24 10 n
t 9 10 s
h 8 8 w
f 24 7 w
r 28 3 w
r 12 0 w
f 2 16 w
r 12 13 s
26 10

3 20
9
r 2 8 s
t 0 2 n
h 2 19 w
r 1 2 s
h 1 13 e
t 0 8 s
r 0 3 s
h 0 18 w
h 1 14 w
38 10

32 66
5
t 20 45 w
f 15 1 n
f 7 30 e
r 29 1 s
r 3 37 s
76 10

29 26
7
h 2 21 n
t 0 6 s
h 9 4 w
r 11 15 e
f 15 24 e
h 11 3 s
t 23 11 e
42 10

14 94
2
t 11 22 w
t 3 46 s
56 10

52 67
7
h 3 27 w
r 0 56 e
t 50 17 n
r 9 49 e
t 0 3 s
r 11 30 w
t 44 0 n
79 10

35 74
1
h 19 63 e
5 1
