28

11 8
7
r 2 3 n
r 1 1 e
r 5 2 w
f 8 5 e
h 6 5 w
h 7 5 w
h 5 7 s
6 1

21 17
8
f 1 12 e
h 13 2 n
t 17 14 s
t 12 0 e
f 14 1 s
t 20 1 n
f 6 0 s
t 16 9 w
20 5

6 5
5
f 0 1 s
h 2 2 n
h 0 0 n
t 1 4 e
h 2 2 w
9 2

6 5
12
t 0 0 s
f 0 3 e
r 1 4 s
h 4 1 s
r 3 1 e
t 2 1 n
t 4 1 n
r 0 1 s
h 4 3 e
t 0 1 e
h 1 4 n
h 0 4 e
6 3

21 24
6
t 19 20 s
r 12 18 w
t 17 0 n
r 16 15 s
h 9 21 w
f 16 14 n
14 1

16 17
11
h 6 8 s
t 2 3 e
t 2 2 w
r 3 1 s
t 5 3 w
r 14 1 e
r 12 11 s
h 2 11 s
f 13 11 n
f 5 6 s
h 5 14 n
6 1

3 24
13
h 1 20 s
f 2 13 w
r 2 19 n
f 0 18 e
h 0 22 n
r 0 11 w
r 2 18 s
t 1 5 e
f 1 14 n
f 2 13 w
f 0 16 e
r 1 9 w
r 0 9 w
17 3

12 6
1
r 5 0 e
14 3

25 25
2
h 3 22 n
f 0 14 s
7 2

9 20
8
r 5 19 s
r 2 4 n
t 8 3 w
t 7 15 s
t 5 10 e
r 8 13 n
t 6 10 e
r 2 14 n
17 3

18 5
4
f 16 4 n
f 7 3 e
f 11 3 n
f 2 1 w
17 4

15 12
6
f 9 7 s
f 7 4 n
r 12 2 w
r 4 8 w
t 4 10 s
r 1 0 n
3 1

17 15
13
f 10 2 s
h 13 9 e
h 4 7 s
r 16 8 n
r 13 10 s
t 11 0 w
r 14 2 w
r 13 1 w
h 3 6 w
f 2 4 n
t 4 10 e
h 8 3 e
h 8 14 e
12 2

5 7
1
r 4 5 s
5 1

20 9
13
h 16 7 e
r 6 6 w
f 19 3 e
t 11 4 s
f 11 8 w
t 16 3 e
f 12 1 w
r 11 8 n
h 1 4 s
t 10 4 e
f 0 8 s
t 5 6 n
f 4 8 s
12 1

10 15
11
f 4 5 n
h 3 8 s
h 5 4 w
t 1 11 s
h 1 0 e
r 2 13 w
h 0 4 n
f 6 11 e
h 9 11 w
f 3 5 w
r 6 4 e
14 3

10 22
3
f 8 1 n
f 6 14 s
t 3 19 e
12 6

9 16
3
h 2 10 s
f 7 14 e
t 1 5 n
3 1

14 10
2
r 13 6 s
f 4 7 w
2 1

8 10
2
f 3 2 e
r 2 9 s
11 1

8 12
1
t 6 10 e
3 1

21 7
3
h 4 5 e
t 13 0 n
h 7 0 w
14 1

22 15
9
t 1 9 w
h 5 5 e
h 10 9 w
r 11 0 s
h 21 4 w
r 6 0 e
h 5 3 w
f 21 4 w
t 3 14 n
6 2

15 12
4
h 12 0 s
f 14 4 s
h 11 2 w
h 10 9 s
7 3

24 14
6
f 13 13 s
f 23 3 w
t 22 1 s
r 15 12 s
f 1 6 e
h 0 11 w
16 1

25 25
9
h 6 4 w
f 0 5 s
f 12 0 w
t 7 3 w
r 24 7 s
f 0 14 w
h 12 12 n
f 13 9 n
f 0 0 n
17 4

9 5
8
t 2 2 e
f 3 4 s
h 2 0 w
t 1 2 e
h 1 2 n
r 4 2 n
r 5 0 s
h 1 2 e
6 3

14 17
3
r 12 14 w
h 1 0 n
f 1 12 e
14 7
