*** Darwin 13x5 ***
Turn = 0.
  01234
0 .....
1 .....
2 .h...
3 .....
4 .....
5 .....
6 .t...
7 .....
8 .....
9 .....
0 .....
1 .....
2 .....

Turn = 4.
  01234
0 .....
1 .....
2 .....
3 .....
4 .....
5 .h...
6 .t...
7 .....
8 .....
9 .....
0 .....
1 .....
2 .....

Turn = 8.
  01234
0 .....
1 .....
2 .....
3 .....
4 .....
5 .t...
6 .t...
7 .....
8 .....
9 .....
0 .....
1 .....
2 .....

Turn = 12.
  01234
0 .....
1 .....
2 .....
3 .....
4 .....
5 .t...
6 .t...
7 .....
8 .....
9 .....
0 .....
1 .....
2 .....

Turn = 16.
  01234
0 .....
1 .....
2 .....
3 .....
4 .....
5 .t...
6 .t...
7 .....
8 .....
9 .....
0 .....
1 .....
2 .....

*** Darwin 17x10 ***
Turn = 0.
  0123456789
0 ..........
1 ..........
2 ..........
3 ..........
4 ..........
5 ..........
6 ..........
7 .......f..
8 ..........
9 ..........
0 ..........
1 ..........
2 ..........
3 .h........
4 ..........
5 ..........
6 ..........

Turn = 5.
  0123456789
0 ..........
1 ..........
2 ..........
3 ..........
4 ..........
5 ..........
6 ..........
7 .......f..
8 ..........
9 ..........
0 ..........
1 ..........
2 ..........
3 ..........
4 ..........
5 ..........
6 .h........

*** Darwin 20x6 ***
Turn = 0.
  012345
0 .ht...
1 ......
2 .r....
3 ......
4 ......
5 ......
6 ......
7 ..f...
8 ......
9 ......
0 ......
1 ......
2 .r....
3 ......
4 ..r...
5 ......
6 ..h...
7 ......
8 ......
9 ......

Turn = 2.
  012345
0 .tt...
1 ......
2 ......
3 ......
4 .r....
5 ......
6 ......
7 ..f...
8 ......
9 ......
0 ......
1 ......
2 ...r..
3 ......
4 ......
5 ......
6 ..r.h.
7 ......
8 ......
9 ......

Turn = 4.
  012345
0 .tt...
1 ......
2 ......
3 ......
4 ......
5 ......
6 .r....
7 ..f...
8 ......
9 ......
0 ......
1 ......
2 .....r
3 ......
4 ......
5 ......
6 .....h
7 ......
8 ..r...
9 ......

Turn = 6.
  012345
0 .tt...
1 ......
2 ......
3 ......
4 ......
5 ......
6 ......
7 ..f...
8 .r....
9 ......
0 ......
1 ......
2 ......
3 .....r
4 ......
5 ......
6 .....h
7 ......
8 ......
9 ..r...

Turn = 8.
  012345
0 .tt...
1 ......
2 ......
3 ......
4 ......
5 ......
6 ......
7 ..f...
8 ......
9 ......
0 .r....
1 ......
2 ......
3 ......
4 ......
5 .....r
6 .....h
7 ......
8 ......
9 ....r.

Turn = 10.
  012345
0 .tt...
1 ......
2 ......
3 ......
4 ......
5 ......
6 ......
7 ..f...
8 ......
9 ......
0 ......
1 ......
2 .r....
3 ......
4 ......
5 .....r
6 ......
7 .....r
8 ......
9 .....r

Turn = 12.
  012345
0 .tt...
1 ......
2 ......
3 ......
4 ......
5 ......
6 ......
7 ..f...
8 ......
9 ......
0 ......
1 ......
2 ......
3 ......
4 .r....
5 ...r..
6 ......
7 ......
8 .....r
9 ....r.

Turn = 14.
  012345
0 .tt...
1 ......
2 ......
3 ......
4 ......
5 ......
6 ......
7 ..f...
8 ......
9 ......
0 ......
1 ......
2 ......
3 ......
4 ......
5 .r....
6 .r....
7 .....r
8 ......
9 ..r...

Turn = 16.
  012345
0 .tt...
1 ......
2 ......
3 ......
4 ......
5 ......
6 ......
7 ..f...
8 ......
9 ......
0 ......
1 ......
2 ......
3 ......
4 ......
5 r....r
6 ......
7 ......
8 .r....
9 r.....

Turn = 18.
  012345
0 .tt...
1 ......
2 ......
3 ......
4 ......
5 ......
6 ......
7 ..f...
8 ......
9 ......
0 ......
1 ......
2 ......
3 r....r
4 ......
5 ......
6 ......
7 ......
8 r.....
9 .r....

Turn = 20.
  012345
0 .tt...
1 ......
2 ......
3 ......
4 ......
5 ......
6 ......
7 ..f...
8 ......
9 ......
0 ......
1 r....r
2 ......
3 ......
4 ......
5 ......
6 r.....
7 ......
8 ......
9 ...r..

*** Darwin 15x14 ***
Turn = 0.
  01234567890123
0 ..............
1 .h............
2 ..............
3 ..f...........
4 ........t.....
5 ......t.......
6 ..............
7 ..............
8 ..............
9 ..........t...
0 ..............
1 ..............
2 ..............
3 .............t
4 ..............

Turn = 4.
  01234567890123
0 ..............
1 h.............
2 ..............
3 ..f...........
4 ........t.....
5 ......t.......
6 ..............
7 ..............
8 ..............
9 ..........t...
0 ..............
1 ..............
2 ..............
3 .............t
4 ..............

Turn = 8.
  01234567890123
0 ..............
1 h.............
2 ..............
3 ..f...........
4 ........t.....
5 ......t.......
6 ..............
7 ..............
8 ..............
9 ..........t...
0 ..............
1 ..............
2 ..............
3 .............t
4 ..............

Turn = 12.
  01234567890123
0 ..............
1 h.............
2 ..............
3 ..f...........
4 ........t.....
5 ......t.......
6 ..............
7 ..............
8 ..............
9 ..........t...
0 ..............
1 ..............
2 ..............
3 .............t
4 ..............

Turn = 16.
  01234567890123
0 ..............
1 h.............
2 ..............
3 ..f...........
4 ........t.....
5 ......t.......
6 ..............
7 ..............
8 ..............
9 ..........t...
0 ..............
1 ..............
2 ..............
3 .............t
4 ..............

Turn = 20.
  01234567890123
0 ..............
1 h.............
2 ..............
3 ..f...........
4 ........t.....
5 ......t.......
6 ..............
7 ..............
8 ..............
9 ..........t...
0 ..............
1 ..............
2 ..............
3 .............t
4 ..............

*** Darwin 16x15 ***
Turn = 0.
  012345678901234
0 ...............
1 ...............
2 ...............
3 ...t...........
4 ...............
5 ...............
6 ...............
7 ......r........
8 ...............
9 ...............
0 ...............
1 ...............
2 .......t.......
3 ...............
4 ...............
5 ...............

Turn = 5.
  012345678901234
0 ...............
1 ...............
2 ......r........
3 ...t...........
4 ...............
5 ...............
6 ...............
7 ...............
8 ...............
9 ...............
0 ...............
1 ...............
2 .......t.......
3 ...............
4 ...............
5 ...............

Turn = 10.
  012345678901234
0 ........r......
1 ...............
2 ...............
3 ...t...........
4 ...............
5 ...............
6 ...............
7 ...............
8 ...............
9 ...............
0 ...............
1 ...............
2 .......t.......
3 ...............
4 ...............
5 ...............

Turn = 15.
  012345678901234
0 .............r.
1 ...............
2 ...............
3 ...t...........
4 ...............
5 ...............
6 ...............
7 ...............
8 ...............
9 ...............
0 ...............
1 ...............
2 .......t.......
3 ...............
4 ...............
5 ...............

*** Darwin 11x12 ***
Turn = 0.
  012345678901
0 ............
1 .....h......
2 ............
3 ............
4 ............
5 ...t........
6 ............
7 ...........r
8 ............
9 .......t....
0 .rh.........

Turn = 5.
  012345678901
0 ............
1 ..........h.
2 ............
3 ............
4 ............
5 ...t........
6 ............
7 ............
8 ............
9 .......t....
0 .....r.h...r

Turn = 10.
  012345678901
0 ............
1 ...........h
2 ............
3 ............
4 ............
5 ...t........
6 ............
7 ............
8 ..........r.
9 .......t....
0 ........r.r.

*** Darwin 16x6 ***
Turn = 0.
  012345
0 ......
1 ......
2 h...t.
3 ......
4 ......
5 ......
6 ......
7 ..r...
8 ..h...
9 ..h...
0 ...ft.
1 ......
2 ......
3 ......
4 ......
5 ......

Turn = 3.
  012345
0 ......
1 ......
2 ....t.
3 ......
4 ......
5 h.....
6 ..h...
7 .....r
8 .....h
9 ......
0 ...tt.
1 ......
2 ......
3 ......
4 ......
5 ......

Turn = 6.
  012345
0 ......
1 ......
2 ....t.
3 ..h...
4 ......
5 ......
6 ......
7 .....r
8 h....r
9 ......
0 ...tt.
1 ......
2 ......
3 ......
4 ......
5 ......

Turn = 9.
  012345
0 ..h...
1 ......
2 ....t.
3 ......
4 ......
5 ......
6 ......
7 ..r...
8 ......
9 ......
0 ...ttr
1 h.....
2 ......
3 ......
4 ......
5 ......

Turn = 12.
  012345
0 ..h...
1 ......
2 ....t.
3 ......
4 ......
5 ......
6 ......
7 r.....
8 ......
9 ......
0 ...ttt
1 ......
2 ......
3 ......
4 h.....
5 ......

Turn = 15.
  012345
0 ..h...
1 ......
2 ....t.
3 ......
4 r.....
5 ......
6 ......
7 ......
8 ......
9 ......
0 ...ttt
1 ......
2 ......
3 ......
4 ......
5 h.....

*** Darwin 4x16 ***
Turn = 0.
  0123456789012345
0 .r....f.........
1 ..fr............
2 .......t...t....
3 .............t..

Turn = 4.
  0123456789012345
0 .....rf.........
1 ..f....r........
2 .......t...t....
3 .............t..

Turn = 8.
  0123456789012345
0 ........r.r.....
1 ..f........r....
2 .......t...t....
3 .............t..

Turn = 12.
  0123456789012345
0 ............r.r.
1 ..f............r
2 .......t...t....
3 .............t..

Turn = 16.
  0123456789012345
0 ...............r
1 ..f...........r.
2 .......t...t....
3 .............t.r

*** Darwin 8x8 ***
Turn = 0.
  01234567
0 ........
1 ........
2 ........
3 ........
4 ......f.
5 ..r.....
6 .......h
7 ........

*** Darwin 12x6 ***
Turn = 0.
  012345
0 ......
1 ......
2 .r....
3 ......
4 .....h
5 ......
6 ..t...
7 r.....
8 .....r
9 .h.f.t
0 ......
1 ......

Turn = 3.
  012345
0 ......
1 ......
2 ......
3 r.....
4 ..h...
5 r....r
6 ..t...
7 ......
8 ......
9 h..f.t
0 ......
1 ......

Turn = 6.
  012345
0 ......
1 ......
2 .....r
3 ......
4 rh....
5 ..t...
6 ..t...
7 ......
8 ......
9 h..f.t
0 ......
1 ......

Turn = 9.
  012345
0 .....r
1 r.....
2 ......
3 ......
4 h.....
5 ..t...
6 ..t...
7 ......
8 ......
9 h..f.t
0 ......
1 ......

Turn = 12.
  012345
0 r....r
1 ......
2 ......
3 ......
4 h.....
5 ..t...
6 ..t...
7 ......
8 ......
9 h..f.t
0 ......
1 ......

Turn = 15.
  012345
0 ..rr..
1 ......
2 ......
3 ......
4 h.....
5 ..t...
6 ..t...
7 ......
8 ......
9 h..f.t
0 ......
1 ......

Turn = 18.
  012345
0 ..r...
1 ......
2 ..r...
3 ......
4 h.....
5 ..t...
6 ..t...
7 ......
8 ......
9 h..f.t
0 ......
1 ......

*** Darwin 14x1 ***
Turn = 0.
  0
0 h
1 r
2 .
3 .
4 .
5 .
6 .
7 f
8 .
9 f
0 .
1 f
2 r
3 r

Turn = 5.
  0
0 r
1 r
2 .
3 .
4 .
5 .
6 .
7 f
8 .
9 f
0 .
1 r
2 r
3 r

Turn = 10.
  0
0 .
1 .
2 .
3 r
4 .
5 .
6 r
7 f
8 .
9 r
0 r
1 .
2 r
3 r

Turn = 15.
  0
0 .
1 .
2 .
3 .
4 r
5 .
6 r
7 r
8 r
9 r
0 .
1 r
2 r
3 .

*** Darwin 19x13 ***
Turn = 0.
  0123456789012
0 .............
1 .............
2 .............
3 .........t...
4 .............
5 .............
6 .............
7 ...h.........
8 .............
9 .............
0 .............
1 .........h...
2 .............
3 .......r.r...
4 .............
5 .............
6 .............
7 .........f...
8 ..........f..

Turn = 1.
  0123456789012
0 .............
1 .............
2 .............
3 .........t...
4 .............
5 .............
6 .............
7 ....h........
8 .............
9 .............
0 .............
1 ........h....
2 .............
3 ..........r..
4 .......r.....
5 .............
6 .............
7 .........f...
8 ..........f..

Turn = 2.
  0123456789012
0 .............
1 .............
2 .............
3 .........t...
4 .............
5 .............
6 .............
7 .....h.......
8 .............
9 .............
0 .............
1 .......h.....
2 .............
3 ...........r.
4 .............
5 .......r.....
6 .............
7 .........f...
8 ..........f..

Turn = 3.
  0123456789012
0 .............
1 .............
2 .............
3 .........t...
4 .............
5 .............
6 .............
7 ......h......
8 .............
9 .............
0 .............
1 ......h......
2 .............
3 ............r
4 .............
5 .............
6 .......r.....
7 .........f...
8 ..........f..

Turn = 4.
  0123456789012
0 .............
1 .............
2 .............
3 .........t...
4 .............
5 .............
6 .............
7 .......h.....
8 .............
9 .............
0 .............
1 .....h.......
2 .............
3 ............r
4 .............
5 .............
6 .............
7 .......r.f...
8 ..........f..

Turn = 5.
  0123456789012
0 .............
1 .............
2 .............
3 .........t...
4 .............
5 .............
6 .............
7 ........h....
8 .............
9 .............
0 .............
1 ....h........
2 .............
3 .............
4 ............r
5 .............
6 .............
7 .........f...
8 .......r..f..

Turn = 6.
  0123456789012
0 .............
1 .............
2 .............
3 .........t...
4 .............
5 .............
6 .............
7 .........h...
8 .............
9 .............
0 .............
1 ...h.........
2 .............
3 .............
4 .............
5 ............r
6 .............
7 .........f...
8 .......r..f..

Turn = 7.
  0123456789012
0 .............
1 .............
2 .............
3 .........t...
4 .............
5 .............
6 .............
7 ..........h..
8 .............
9 .............
0 .............
1 ..h..........
2 .............
3 .............
4 .............
5 .............
6 ............r
7 .........f...
8 ........r.f..

Turn = 8.
  0123456789012
0 .............
1 .............
2 .............
3 .........t...
4 .............
5 .............
6 .............
7 ...........h.
8 .............
9 .............
0 .............
1 .h...........
2 .............
3 .............
4 .............
5 .............
6 .............
7 .........f..r
8 .........rf..

Turn = 9.
  0123456789012
0 .............
1 .............
2 .............
3 .........t...
4 .............
5 .............
6 .............
7 ............h
8 .............
9 .............
0 .............
1 h............
2 .............
3 .............
4 .............
5 .............
6 .............
7 .........fr..
8 .........r..r

Turn = 10.
  0123456789012
0 .............
1 .............
2 .............
3 .........t...
4 .............
5 .............
6 .............
7 ............h
8 .............
9 .............
0 .............
1 h............
2 .............
3 .............
4 .............
5 .............
6 ..........r..
7 .........f...
8 ..........r.r

Turn = 11.
  0123456789012
0 .............
1 .............
2 .............
3 .........t...
4 .............
5 .............
6 .............
7 ............h
8 .............
9 .............
0 .............
1 h............
2 .............
3 .............
4 .............
5 ..........r..
6 .............
7 .........f...
8 ...........rr

Turn = 12.
  0123456789012
0 .............
1 .............
2 .............
3 .........t...
4 .............
5 .............
6 .............
7 ............h
8 .............
9 .............
0 .............
1 h............
2 .............
3 .............
4 ..........r..
5 .............
6 .............
7 .........f..r
8 ...........r.

Turn = 13.
  0123456789012
0 .............
1 .............
2 .............
3 .........t...
4 .............
5 .............
6 .............
7 ............h
8 .............
9 .............
0 .............
1 h............
2 .............
3 ..........r..
4 .............
5 .............
6 ............r
7 .........f...
8 ...........r.

Turn = 14.
  0123456789012
0 .............
1 .............
2 .............
3 .........t...
4 .............
5 .............
6 .............
7 ............h
8 .............
9 .............
0 .............
1 h............
2 ..........r..
3 .............
4 .............
5 ............r
6 .............
7 .........f...
8 ..........r..

Turn = 15.
  0123456789012
0 .............
1 .............
2 .............
3 .........t...
4 .............
5 .............
6 .............
7 ............h
8 .............
9 .............
0 .............
1 h.........r..
2 .............
3 .............
4 ............r
5 .............
6 .............
7 .........f...
8 .........r...

Turn = 16.
  0123456789012
0 .............
1 .............
2 .............
3 .........t...
4 .............
5 .............
6 .............
7 ............h
8 .............
9 .............
0 ..........r..
1 h............
2 .............
3 ............r
4 .............
5 .............
6 .............
7 .........f...
8 ........r....

Turn = 17.
  0123456789012
0 .............
1 .............
2 .............
3 .........t...
4 .............
5 .............
6 .............
7 ............h
8 .............
9 ..........r..
0 .............
1 h............
2 ............r
3 .............
4 .............
5 .............
6 .............
7 .........f...
8 .......r.....

Turn = 18.
  0123456789012
0 .............
1 .............
2 .............
3 .........t...
4 .............
5 .............
6 .............
7 ............h
8 ..........r..
9 .............
0 .............
1 h...........r
2 .............
3 .............
4 .............
5 .............
6 .............
7 .........f...
8 ......r......

Turn = 19.
  0123456789012
0 .............
1 .............
2 .............
3 .........t...
4 .............
5 .............
6 .............
7 ..........r.h
8 .............
9 .............
0 ............r
1 h............
2 .............
3 .............
4 .............
5 .............
6 .............
7 .........f...
8 .....r.......

*** Darwin 2x16 ***
Turn = 0.
  0123456789012345
0 ...........r....
1 t.h.........f.t.

Turn = 2.
  0123456789012345
0 .............r..
1 t.h.........f.t.

Turn = 4.
  0123456789012345
0 ...............r
1 t.h.........f.t.

*** Darwin 5x11 ***
Turn = 0.
  01234567890
0 .........rr
1 h..........
2 .t.........
3 ...rfht....
4 .......f..h

Turn = 4.
  01234567890
0 ...........
1 h..........
2 .t........r
3 ....f.t..r.
4 .r...h.f.r.

*** Darwin 7x4 ***
Turn = 0.
  0123
0 ....
1 .f.t
2 .f..
3 ....
4 r...
5 ....
6 f.t.

Turn = 1.
  0123
0 ....
1 .f.t
2 .f..
3 ....
4 r...
5 ....
6 f.t.

Turn = 2.
  0123
0 ....
1 .f.t
2 .f..
3 r...
4 ....
5 ....
6 f.t.

Turn = 3.
  0123
0 ....
1 .f.t
2 rf..
3 ....
4 ....
5 ....
6 f.t.

Turn = 4.
  0123
0 ....
1 rf.t
2 .f..
3 ....
4 ....
5 ....
6 f.t.

Turn = 5.
  0123
0 r...
1 .f.t
2 .f..
3 ....
4 ....
5 ....
6 f.t.

Turn = 6.
  0123
0 r...
1 .f.t
2 .f..
3 ....
4 ....
5 ....
6 f.t.

Turn = 7.
  0123
0 r...
1 .f.t
2 .f..
3 ....
4 ....
5 ....
6 f.t.

Turn = 8.
  0123
0 r...
1 .f.t
2 .f..
3 ....
4 ....
5 ....
6 f.t.

Turn = 9.
  0123
0 .r..
1 .f.t
2 .f..
3 ....
4 ....
5 ....
6 f.t.

Turn = 10.
  0123
0 ..r.
1 .f.t
2 .f..
3 ....
4 ....
5 ....
6 f.t.

Turn = 11.
  0123
0 ...t
1 .f.t
2 .f..
3 ....
4 ....
5 ....
6 f.t.

Turn = 12.
  0123
0 ...t
1 .f.t
2 .f..
3 ....
4 ....
5 ....
6 f.t.

Turn = 13.
  0123
0 ...t
1 .f.t
2 .f..
3 ....
4 ....
5 ....
6 f.t.

Turn = 14.
  0123
0 ...t
1 .f.t
2 .f..
3 ....
4 ....
5 ....
6 f.t.

Turn = 15.
  0123
0 ...t
1 .f.t
2 .f..
3 ....
4 ....
5 ....
6 f.t.

Turn = 16.
  0123
0 ...t
1 .f.t
2 .f..
3 ....
4 ....
5 ....
6 f.t.

Turn = 17.
  0123
0 ...t
1 .f.t
2 .f..
3 ....
4 ....
5 ....
6 f.t.

Turn = 18.
  0123
0 ...t
1 .f.t
2 .f..
3 ....
4 ....
5 ....
6 f.t.

Turn = 19.
  0123
0 ...t
1 .f.t
2 .f..
3 ....
4 ....
5 ....
6 f.t.

Turn = 20.
  0123
0 ...t
1 .f.t
2 .f..
3 ....
4 ....
5 ....
6 f.t.

*** Darwin 18x12 ***
Turn = 0.
  012345678901
0 ............
1 ............
2 ............
3 ............
4 ............
5 ............
6 ........r...
7 ............
8 ............
9 ............
0 ............
1 ............
2 ............
3 ............
4 ............
5 ............
6 ............
7 ............

Turn = 3.
  012345678901
0 ............
1 ............
2 ............
3 ............
4 ............
5 ............
6 ............
7 ............
8 ............
9 ........r...
0 ............
1 ............
2 ............
3 ............
4 ............
5 ............
6 ............
7 ............

Turn = 6.
  012345678901
0 ............
1 ............
2 ............
3 ............
4 ............
5 ............
6 ............
7 ............
8 ............
9 ............
0 ............
1 ............
2 ........r...
3 ............
4 ............
5 ............
6 ............
7 ............

Turn = 9.
  012345678901
0 ............
1 ............
2 ............
3 ............
4 ............
5 ............
6 ............
7 ............
8 ............
9 ............
0 ............
1 ............
2 ............
3 ............
4 ............
5 ........r...
6 ............
7 ............

*** Darwin 13x10 ***
Turn = 0.
  0123456789
0 ..........
1 .....f....
2 ..........
3 ..........
4 .........f
5 h.........
6 ..f.......
7 ..........
8 ..........
9 ..........
0 ..........
1 ..........
2 .f........

Turn = 3.
  0123456789
0 ..........
1 .....f....
2 h.........
3 ..........
4 .........f
5 ..........
6 ..f.......
7 ..........
8 ..........
9 ..........
0 ..........
1 ..........
2 .f........

Turn = 6.
  0123456789
0 h.........
1 .....f....
2 ..........
3 ..........
4 .........f
5 ..........
6 ..f.......
7 ..........
8 ..........
9 ..........
0 ..........
1 ..........
2 .f........

Turn = 9.
  0123456789
0 h.........
1 .....f....
2 ..........
3 ..........
4 .........f
5 ..........
6 ..f.......
7 ..........
8 ..........
9 ..........
0 ..........
1 ..........
2 .f........

Turn = 12.
  0123456789
0 h.........
1 .....f....
2 ..........
3 ..........
4 .........f
5 ..........
6 ..f.......
7 ..........
8 ..........
9 ..........
0 ..........
1 ..........
2 .f........

Turn = 15.
  0123456789
0 h.........
1 .....f....
2 ..........
3 ..........
4 .........f
5 ..........
6 ..f.......
7 ..........
8 ..........
9 ..........
0 ..........
1 ..........
2 .f........

*** Darwin 11x16 ***
Turn = 0.
  0123456789012345
0 ...t.........h..
1 .rhtt...........
2 ................
3 ..............h.
4 ................
5 f.....t.........
6 ................
7 ................
8 f...............
9 ................
0 ................

Turn = 5.
  0123456789012345
0 r..t............
1 ...tt...........
2 ................
3 .........h......
4 ................
5 f.....t......h..
6 ..h.............
7 ................
8 f...............
9 ................
0 ................

Turn = 10.
  0123456789012345
0 ..rr............
1 ...tt...........
2 ................
3 ....h...........
4 ................
5 f.....t.........
6 ................
7 ................
8 f...............
9 ................
0 ..h..........h..

*** Darwin 20x6 ***
Turn = 0.
  012345
0 ......
1 ......
2 ......
3 .....t
4 ......
5 ......
6 ......
7 ......
8 ......
9 ......
0 ..t...
1 t.....
2 ......
3 f.....
4 ......
5 ......
6 ......
7 ......
8 ......
9 ......

Turn = 3.
  012345
0 ......
1 ......
2 ......
3 .....t
4 ......
5 ......
6 ......
7 ......
8 ......
9 ......
0 ..t...
1 t.....
2 ......
3 f.....
4 ......
5 ......
6 ......
7 ......
8 ......
9 ......

Turn = 6.
  012345
0 ......
1 ......
2 ......
3 .....t
4 ......
5 ......
6 ......
7 ......
8 ......
9 ......
0 ..t...
1 t.....
2 ......
3 f.....
4 ......
5 ......
6 ......
7 ......
8 ......
9 ......

Turn = 9.
  012345
0 ......
1 ......
2 ......
3 .....t
4 ......
5 ......
6 ......
7 ......
8 ......
9 ......
0 ..t...
1 t.....
2 ......
3 f.....
4 ......
5 ......
6 ......
7 ......
8 ......
9 ......

*** Darwin 14x18 ***
Turn = 0.
  012345678901234567
0 ..................
1 ..h...............
2 ....h.............
3 .............t....
4 ..................
5 t.................
6 ..................
7 ...........f......
8 ..................
9 .................t
0 ..t.......h.......
1 ..................
2 ..................
3 ..................

Turn = 1.
  012345678901234567
0 ..................
1 .h..h.............
2 ..................
3 .............t....
4 ..................
5 t.................
6 ..................
7 ...........f......
8 ..................
9 .................t
0 ..t...............
1 ..........h.......
2 ..................
3 ..................

Turn = 2.
  012345678901234567
0 ....h.............
1 h.................
2 ..................
3 .............t....
4 ..................
5 t.................
6 ..................
7 ...........f......
8 ..................
9 .................t
0 ..t...............
1 ..................
2 ..........h.......
3 ..................

Turn = 3.
  012345678901234567
0 ....h.............
1 h.................
2 ..................
3 .............t....
4 ..................
5 t.................
6 ..................
7 ...........f......
8 ..................
9 .................t
0 ..t...............
1 ..................
2 ..................
3 ..........h.......

*** Darwin 3x2 ***
Turn = 0.
  01
0 ff
1 .t
2 .h

Turn = 5.
  01
0 ft
1 .t
2 .t

*** Darwin 1x15 ***
Turn = 0.
  012345678901234
0 .........r.....

Turn = 5.
  012345678901234
0 ....r..........

Turn = 10.
  012345678901234
0 r..............

Turn = 15.
  012345678901234
0 ..r............

*** Darwin 1x17 ***
Turn = 0.
  01234567890123456
0 f.h.....r...h....

Turn = 1.
  01234567890123456
0 f..h...r...h.....

Turn = 2.
  01234567890123456
0 f...h.r...h......

Turn = 3.
  01234567890123456
0 f....rr..h.......

Turn = 4.
  01234567890123456
0 f....rr.h........

Turn = 5.
  01234567890123456
0 f....rrh.........

Turn = 6.
  01234567890123456
0 f...rrh..........

Turn = 7.
  01234567890123456
0 f..rrh...........

Turn = 8.
  01234567890123456
0 f.rrh............

Turn = 9.
  01234567890123456
0 frrh.............

Turn = 10.
  01234567890123456
0 rrrh.............

Turn = 11.
  01234567890123456
0 rrrh.............

Turn = 12.
  01234567890123456
0 rrrh.............

Turn = 13.
  01234567890123456
0 rrrh.............

Turn = 14.
  01234567890123456
0 rrrh.............
